KiddLab - Set of 55 AISNPs

SiteUId	rsnumber	Chromosome	Chromosome Position
SI047925B	rs10497191	2	158,667,217
SI000148N	rs1079597	11	113,296,286
SI014486X	rs11652805	17	62,987,151
SI000229N	rs1229984	4	100,239,319
SI014382S	rs12439433	15	36,220,035
SI149862E	rs12498138	3	121,459,589
SI007119S	rs12913832	15	28,365,618
SI007419V	rs1426654	15	48,426,484
SI015081P	rs1462906	8	31,896,592
SI220810N	rs1572018	13	41,715,282
SI003963V	rs16891982	5	33,951,693
SI261414S	rs174570	11	61,597,212
SI663762E	rs17642714	17	48,726,132
SI018115Q	rs1800414	15	28,197,037
SI274807C	rs1834619	2	17,901,485
SI015086U	rs1871534	8	145,639,681
SI011374Q	rs1876482	2	17,362,568
SI014377W	rs192655	6	90,518,278
SI014407Q	rs200354	14	99,375,321
SI293985K	rs2024566	22	41,697,338
SI664004U	rs2042762	18	35,277,622
SI309054V	rs2166624	13	42,579,985
SI312136Q	rs2196051	8	122,124,302
SI000746R	rs2238151	12	112,211,833
SI014656W	rs2593595	17	41,056,245
SI014376V	rs260690	2	109,579,738
SI007627W	rs2814778	1	159,174,683
SI375880F	rs310644	20	62,159,504
SI014459X	rs3737576	1	101,709,563
SI001672Q	rs3811801	4	100,244,319
SI018440R	rs3814134	9	127,267,689
SI394063Z	rs3823159	6	136,482,727
SI663326A	rs3827760	2	109,513,601
SI015111J	rs3916235	18	67,578,931
SI663763F	rs4411548	17	40,658,533
SI416772B	rs4471745	17	53,568,884
SI422500N	rs459920	16	89,730,827
SI442208U	rs4833103	4	38,815,502
SI014465U	rs4891825	18	67,867,663
SI450037T	rs4918664	10	94,911,055
SI000734O	rs671	12	112,241,766
SI663764G	rs6754311	2	136,707,982
SI525364Z	rs6990312	8	110,602,317
SI545548F	rs7226659	18	40,488,279
SI547570C	rs7251928	19	4,077,096
SI015101I	rs7326934	13	49,070,512
SI554237A	rs735480	15	45,152,371
SI014451P	rs7554936	1	151,122,489
SI014474U	rs7657799	4	105,375,423
SI578632F	rs7722456	5	170,202,984
SI014425Q	rs798443	2	7,968,275
SI014481S	rs7997709	13	34,847,737
SI014411L	rs870347	5	6,845,035
SI621344U	rs917115	7	28,139,111
SI014485W	rs9522149	13	111,827,167
